1185 1194
Parameter   ! first 3 elements per line are significant (if used as input)
 11      0.0000       -1.0000    
111     -4.0505        0.0000       -4.0505       0.32961E-02
211     0.35637        0.0000       0.35637       0.31845E-02
311      0.0000       -1.0000
 12      0.0000       -1.0000    
112      2.4473        0.0000        2.4473       0.30758E-02
212      2.8100        0.0000        2.8100       0.29715E-02
312      0.0000       -1.0000 