# LAYER_ID | EE/FH | SENSOR_IX | SENSOR_IV | MODULE_ID 
0 0.0 EE 0 0 78
1 0.0 EE 0 0 90
2 0.0 EE 0 0 89
3 0.0 EE 0 0 88
4 0.0 EE 0 0 77
5 0.0 EE 0 0 85
6 0.0 EE 0 0 84
7 0.0 EE 0 0 32
8 0.0 EE 0 0 69
9 0.0 EE 0 0 79
10 0.0 EE 0 0 67
11 0.0 EE 0 0 65
12 0.0 EE 0 0 76
13 0.0 EE 0 0 83
14 0.0 EE 0 0 35
15 0.0 EE 0 0 36
16 0.0 EE 0 0 70
17 0.0 EE 0 0 73
18 0.0 EE 0 0 44
19 0.0 EE 0 0 51
20 0.0 EE 0 0 86
21 0.0 EE 0 0 87
22 0.0 EE 0 0 54
23 0.0 EE 0 0 62
24 0.0 EE 0 0 64
25 0.0 EE 0 0 55
26 0.0 EE 0 0 59
27 0.0 EE 0 0 71


